…
<img src="man/figures/README-unnamed-chunk-2-1.png" width="100%" />

Перейдем к суточному разрешению - оценим среднесуточную температуру и
глубину снежного покрова, а также суммарное количество осадков в сутки:

``` r
daily <- source_data_replaced_na |>
  aggregate_rp5('day')
#> Aggregated columns were NOT detected. Processing raw data
daily
#> # A tibble: 2,884 × 7
#>     Year Month   Day     N T_avg sss_avg RRR_sum
#>    <dbl> <dbl> <int> <int> <dbl>   <dbl>   <dbl>
#>  1  2018     1     1     8  0.02   NaN       0.3
#>  2  2018     1     2     7  2.47   NaN       0  
#>  3  2018     1     3     8  2.84   NaN       0.8
#>  4  2018     1     4     8  2.35   NaN       0  
#>  5  2018     1     5     8 -0.68     2      14  
#>  6  2018     1     6     8  1.07     4       5.5
#>  7  2018     1     7     8  2.49   NaN       0.9
#>  8  2018     1     8     7 -1.74     0.5     3.1
#>  9  2018     1     9     7 -3.31     4       0  
#> 10  2018     1    10     8 -2.66     4       0  
#> # ℹ 2,874 more rows
```
…
